﻿// EVENT 0126
Name "Stage 6"

355("ex_choice_add(\"Holy Song\",1,")
655("\"s[1034] and s[1036] and s[1383]\",1)")
655("ex_choice_add(\"Stage of Darkness\",2,")
655("\"s[1045]\",1)")
655("ex_choice_add(\"Fishy Pirates Recruitment!\",3,")
655("\"s[1197] and s[1201] and s[1202]\",1)")
655("ex_choice_add(\"Navy Recruitment\",4,")
655("\"s[1203] and s[1204] and s[1205]\",1)")
655("ex_choice_add(\"Coliseum Monsters\",5,")
655("\"s[1212] and s[1213]\",1)")
655("ex_choice_add(\"Sleepy Cat\",6,")
655("\"s[1222]\",1)")
355("ex_choice_add(\"Roar of the Minotaur\",7,")
655("\"s[1141] and s[1215] and s[1216] and ")
655("s[1217] and s[1218] and s[1525]\",1)")
655("ex_choice_add(\"心労 (Needs Alice)\",8,")
655("\"s[1236] and s[1237] and s[1241]\",1)")
655("ex_choice_add(\"Social Insects\",9,")
655("\"s[1244] and s[1245] and s[1249] and ")
655("s[1268]\",1)")
655("ex_choice_add(\"Beezlebub Show\",10,")
655("\"s[1275] and s[1276] and s[1277]\",1)")
655("ex_choice_add(\"Cancel\",11)")
355("ex_choice_show(0,11,[0,0])")
If(1,9,0,1,0)
 ChangeSwitch(651,651,0)
 221()
 242(1)
 Wait(60)
 211(0)
 TeleportPlayer(0,758,0,1,0,2)
 222()
 EndEventProcessing()
 0()
EndIf()
If(1,9,0,2,0)
 ChangeSwitch(652,652,0)
 221()
 242(1)
 Wait(60)
 211(0)
 TeleportPlayer(0,758,0,1,0,2)
 222()
 EndEventProcessing()
 0()
EndIf()
If(1,9,0,3,0)
 ChangeSwitch(653,653,0)
 221()
 242(1)
 Wait(60)
 211(0)
 TeleportPlayer(0,758,0,1,0,2)
 222()
 EndEventProcessing()
 0()
EndIf()
If(1,9,0,4,0)
 ChangeSwitch(654,654,0)
 221()
 242(1)
 Wait(60)
 211(0)
 TeleportPlayer(0,758,0,1,0,2)
 222()
 EndEventProcessing()
 0()
EndIf()
If(1,9,0,5,0)
 ChangeSwitch(655,655,0)
 221()
 242(1)
 Wait(60)
 211(0)
 TeleportPlayer(0,758,0,1,0,2)
 222()
 EndEventProcessing()
 0()
EndIf()
If(1,9,0,6,0)
 ChangeSwitch(656,656,0)
 221()
 242(1)
 Wait(60)
 211(0)
 TeleportPlayer(0,758,0,1,0,2)
 222()
 EndEventProcessing()
 0()
EndIf()
If(1,9,0,7,0)
 ChangeSwitch(657,657,0)
 221()
 242(1)
 Wait(60)
 211(0)
 TeleportPlayer(0,758,0,1,0,2)
 222()
 EndEventProcessing()
 0()
EndIf()
If(1,9,0,8,0)
 ChangeSwitch(658,658,0)
 221()
 242(1)
 Wait(60)
 211(0)
 TeleportPlayer(0,758,0,1,0,2)
 222()
 EndEventProcessing()
 0()
EndIf()
If(1,9,0,9,0)
 ChangeSwitch(659,659,0)
 221()
 242(1)
 Wait(60)
 211(0)
 TeleportPlayer(0,758,0,1,0,2)
 222()
 EndEventProcessing()
 0()
EndIf()
If(1,9,0,10,0)
 ChangeSwitch(660,660,0)
 221()
 242(1)
 Wait(60)
 211(0)
 TeleportPlayer(0,758,0,1,0,2)
 222()
 EndEventProcessing()
 0()
EndIf()
0()
